<svg width="385" height="355" viewBox="0 0 385 355" fill="none" xmlns="http://www.w3.org/2000/svg">
<g opacity="0.05">
<rect x="-203.084" y="150.773" width="543" height="77.5714" rx="38.7857" transform="rotate(-45 -203.084 150.773)" fill="#3A57E8"/>
<rect x="-38.5293" y="315.328" width="543" height="77.5714" rx="38.7857" transform="rotate(-45 -38.5293 315.328)" fill="#3A57E8"/>
<rect x="15.9375" y="95.543" width="310.286" height="77.5714" rx="38.7857" transform="rotate(45 15.9375 95.543)" fill="#3A57E8"/>
<rect x="16.3164" y="-233.172" width="543" height="77.5714" rx="38.7857" transform="rotate(45 16.3164 -233.172)" fill="#3A57E8"/>
</g>
</svg>
